Cross-Module Linkage and Database Integration • ALccdfDB
…
# Column metadata for the programs table
db_table_info(conn, "programs")
#> # A tibble: 51 × 3
#>    column_name       column_type description
#>    <chr>             <chr>       <chr>      
#>  1 facility_id       VARCHAR     NA         
#>  2 facility_name     VARCHAR     NA         
#>  3 facility_type_raw VARCHAR     NA         
#>  4 facility_type     VARCHAR     NA         
#>  5 facility_tier     VARCHAR     NA         
#>  6 county            VARCHAR     NA         
#>  7 region            VARCHAR     NA         
#>  8 facility_address  VARCHAR     NA         
#>  9 facility_address2 VARCHAR     NA         
#> 10 provider_id       VARCHAR     NA         
#> # ℹ 41 more rows
…
